…
Attaching package: ‘rtweet’

The following object is masked from ‘package:purrr’:

> tweets=search_tweets("Lebron", n=2000)
Requesting token on behalf of user...
Waiting for authentication in browser...
Press Esc/Ctrl + C to abort
Authentication complete.
Downloading [=========================================] 100%
> search_tweets("Lebron")
# A tibble: 100 x 90
   user_id  status_id created_at          screen_name text   source display_text_wi~
   <chr>    <chr>     <dttm>              <chr>       <chr>  <chr>             <dbl>
 1 1220482~ 13890442~ 2021-05-03 02:28:40 nobullsh_t~ "@Hig~ Twitt~              154
 2 3080251~ 13890442~ 2021-05-03 02:28:40 pablofe749~ "#ad ~ Twitt~              140
 3 3080251~ 13890440~ 2021-05-03 02:27:54 pablofe749~ "#ad ~ Twitt~              140
 4 2822209~ 13890441~ 2021-05-03 02:28:38 steveklosc~ "Larr~ Twitt~              140
 5 1287462~ 13890441~ 2021-05-03 02:28:37 ALUAD069    "Lebr~ Twitt~               13
 6 1205978~ 13890441~ 2021-05-03 02:28:35 xhmnx       "Mayb~ Twitt~               91
 7 1101113~ 13890441~ 2021-05-03 02:28:35 MuseKhaotic "Coli~ Twitt~               98
 8 1310671~ 13890441~ 2021-05-03 02:28:33 DONFREDSTL~ "Kuz ~ Twitt~              124
 9 8520939~ 13890441~ 2021-05-03 02:28:33 YounginGot~ "Andr~ Twitt~              140
10 1378562~ 13890441~ 2021-05-03 02:28:30 OnwenuRG1   "Mayb~ Twitt~               91
# ... with 90 more rows, and 83 more variables: reply_to_status_id <chr>,
#   reply_to_user_id <chr>, reply_to_screen_name <chr>, is_quote <lgl>,
#   is_retweet <lgl>, favorite_count <int>, retweet_count <int>, quote_count <int>,
#   reply_count <int>, hashtags <list>, symbols <list>, urls_url <list>,
#   urls_t.co <list>, urls_expanded_url <list>, media_url <list>,
#   media_t.co <list>, media_expanded_url <list>, media_type <list>,
#   ext_media_url <list>, ext_media_t.co <list>, ext_media_expanded_url <list>,
#   ext_media_type <chr>, mentions_user_id <list>, mentions_screen_name <list>,
#   lang <chr>, quoted_status_id <chr>, quoted_text <chr>,
…
install.packages("gtrendsR")
> library(gtrendsR)
> Search_data = search_tweets("Lebron", n=500) %>%
+   select(screen_name, text, favorite_count, retweet_count, reply_count)
Downloading [=========================================] 100%
> ?select
> Search_data %>% select(screen_name, text, favorite_count, retweet_count, reply_count)
# A tibble: 500 x 5
   screen_name  text                        favorite_count retweet_count reply_count
   <chr>        <chr>                                <int>         <int>       <int>
 1 Too_swift_k~ "How LeBron looking at Ada~              0           427          NA
 2 paytondj2    "Hope Lebron is okay from ~              0           119          NA
 3 bryanericlo~ "ponte serio Lebron, vamos~              0             0          NA
 4 kaksanca     "@LakersWhat @ayecee17 @Th~              0             0          NA
 5 keciayvirsin "@Qoeg128 Dostum ben LeBro~              0             0          NA
 6 mcaristotle5 "@KingJames spoke too soon~              0             6          NA
 7 BlvckRanger  "How LeBron looking at Ada~              0           427          NA
 8 Knickloyalty "@_knicks1688 @YankeesKnic~              0             0          NA
 9 BigBruvah    "Lebron ripping NBA brass ~              0             0          NA
10 IameIoBaII   "@deadhairlineee @_Fred83 ~              0             0          NA
# ... with 490 more rows
> print(Search_data)
# A tibble: 500 x 5
   screen_name  text                        favorite_count retweet_count reply_count
   <chr>        <chr>                                <int>         <int>       <int>
 1 Too_swift_k~ "How LeBron looking at Ada~              0           427          NA
 2 paytondj2    "Hope Lebron is okay from ~              0           119          NA
 3 bryanericlo~ "ponte serio Lebron, vamos~              0             0          NA
 4 kaksanca     "@LakersWhat @ayecee17 @Th~              0             0          NA
 5 keciayvirsin "@Qoeg128 Dostum ben LeBro~              0             0          NA
 6 mcaristotle5 "@KingJames spoke too soon~              0             6          NA
 7 BlvckRanger  "How LeBron looking at Ada~              0           427          NA
 8 Knickloyalty "@_knicks1688 @YankeesKnic~              0             0          NA
 9 BigBruvah    "Lebron ripping NBA brass ~              0             0          NA
10 IameIoBaII   "@deadhairlineee @_Fred83 ~              0             0          NA
# ... with 490 more rows
…
